# Blender v2.69 (sub 0) OBJ File: 'knight.blend'
# www.blender.org
o Knight_Cube.008
v 4.040854 -1.365522 3.027639
v 3.779474 -1.254611 3.704989
v 0.862039 -0.985940 3.704988
v 0.584800 -1.047248 3.027640
v 5.125436 2.804097 3.027639
v 4.711256 2.441465 3.704989
v 0.620954 2.818148 3.704988
v 0.279975 3.250322 3.027640
v 1.871880 -3.154197 3.027639
v 1.940971 -2.846625 3.704988
v 2.378867 -2.886951 3.704989
v 2.390620 -3.201968 3.027640
v -2.217635 1.074185 3.286829
v -1.036404 0.132923 4.699581
v -2.106552 1.033967 3.167155
v -0.925321 0.092705 4.579907
v -1.883036 1.024767 3.377716
v -1.016727 0.334450 4.413822
v -1.994119 1.064985 3.497390
v -1.127810 0.374668 4.533496
v -1.703737 0.766320 3.934886
v -1.523552 0.622741 4.150387
v -1.529106 0.703094 3.746748
v -1.348921 0.559515 3.962249
v -1.698804 0.404385 3.689618
v -1.518620 0.260805 3.905119
v -1.873435 0.467611 3.877756
v -1.693251 0.324031 4.093257
v -2.420758 -0.874080 3.441466
v -2.240573 -1.017660 3.656968
v -2.602604 -0.808242 3.637376
v -2.422419 -0.951822 3.852878
v -1.124736 0.890399 4.193624
v -1.459710 1.157322 3.792996
v -1.172928 0.907847 4.245544
v -1.507902 1.174770 3.844915
v 1.973495 6.297335 5.246316
v 1.606544 6.589739 4.807443
v 1.919625 6.316838 5.304354
v 1.552674 6.609243 4.865480
v 2.563720 7.788652 5.283886
v 2.543278 7.796054 5.305910
v -0.102048 3.365047 0.110392
v 1.197006 3.365047 0.110392
v 0.547479 3.249216 -0.964486
v -0.200061 3.306316 -0.517004
v 1.295019 3.306316 -0.517004
v 0.186709 3.312282 -0.821633
v 0.908249 3.312282 -0.821633
v 0.547479 4.159908 1.105181
v 0.547479 3.891260 -0.964486
v -0.294787 3.981246 -0.526351
v 1.389745 3.981246 -0.526351
v 0.186709 3.990520 -0.821633
v 0.908249 3.990520 -0.821633
v 0.547479 4.894026 -0.829590
v -0.221144 4.522177 -0.369026
v 1.316102 4.522177 -0.369026
v 0.403167 4.763690 -0.650218
v 0.691792 4.763690 -0.650218
v 0.547479 5.251011 0.151387
v -0.132725 4.663438 0.148879
v 1.227684 4.663438 0.148879
v 0.415590 5.073293 0.056349
v 0.679369 5.073293 0.056349
v 0.547479 4.934614 0.944364
v -0.263901 4.165801 0.734652
v 1.358860 4.165801 0.734652
v 0.407055 4.727250 0.776403
v 0.687904 4.727250 0.776403
v 0.554923 3.203182 1.308855
v 0.540035 4.144868 1.173517
v -0.196731 3.737122 0.649787
v 1.291690 3.737122 0.649787
v -0.221201 4.163053 0.694137
v 1.316159 4.163053 0.694137
v -0.126108 3.749598 -0.136872
v 1.221067 3.749598 -0.136872
v -0.139116 4.163793 -0.155669
v 1.234074 4.163793 -0.155669
v 1.351319 3.350034 -0.841994
v -0.256360 3.350034 -0.841994
v 0.547479 3.329745 -1.003254
v 1.634679 2.854548 0.199934
v -0.539720 2.854548 0.199934
v 0.547498 2.387790 1.319976
v 2.180218 2.814576 -1.012462
v -1.085190 2.814887 -1.012573
v 2.588585 2.641943 -0.061901
v -1.493627 2.641943 -0.061901
v 0.547479 2.516093 -1.845841
v 1.594019 3.440988 0.658013
v -0.443593 3.463591 0.642281
v 0.565716 3.230493 1.589361
v 0.547479 1.019905 2.086297
v 1.487770 3.768154 -0.730438
v -0.392812 3.768154 -0.730438
v 0.547479 4.016786 -0.995534
v 1.956524 1.438576 -0.316763
v -0.925054 1.716166 -0.310912
v 2.344675 1.327520 -1.433944
v -1.422024 1.479264 -1.287657
v 2.832749 2.269313 -0.526636
v -1.677969 2.646110 -0.597316
v 2.149705 2.154747 -0.088158
v -0.925024 2.611701 -0.275095
v 2.396919 -0.006418 2.713193
v -1.832647 0.568748 4.106942
v 2.397130 -0.053756 2.659985
v -1.797156 0.526232 4.037244
v 2.280524 -0.043265 2.726054
v -1.823568 0.430414 4.172740
v 2.279992 -0.085250 2.675269
v -1.787891 0.391799 4.109331
v 2.489174 -0.045146 2.798599
v -1.932094 0.251761 3.832135
v 2.587031 -0.441273 3.183275
v -2.384939 -0.266856 3.999995
v 2.721096 -0.186840 3.245064
v -2.438606 0.002297 4.135036
v 2.498760 0.065081 2.912926
v -2.010260 0.377829 4.011950
v 2.681643 -0.205644 1.572445
v -1.979000 0.350424 2.670955
v 3.173418 -0.475548 1.648645
v -2.514117 0.212991 2.547424
v 3.290239 0.026321 1.703742
v -2.536072 0.712256 2.684569
v 2.826789 0.142967 1.679220
v -2.075208 0.703324 2.813093
v 2.353155 -2.430701 0.693442
v -1.244839 -2.123404 1.403826
v 1.073112 -1.765810 0.990393
v -0.438363 -1.578225 0.996166
v 3.293439 -0.163528 -0.208170
v -2.210868 0.614979 0.752832
v 3.166331 -0.356073 -0.100313
v -1.928456 0.605095 0.942297
v 3.428793 -0.580700 0.331295
v -2.354621 0.392484 1.223027
v 3.106007 -0.404572 0.285643
v -2.004982 0.481013 1.307947
v 3.496106 -0.572107 0.094919
v -2.340224 0.456522 0.986025
v 3.116876 -0.376697 0.090046
v -1.947282 0.541769 1.128692
v 2.165231 0.842252 -0.180405
v -1.042381 1.381184 0.175956
v 2.878944 0.788548 -0.997707
v -1.917437 1.121181 -0.413050
v 3.234105 1.631014 0.004349
v -1.994652 2.325101 0.207124
v 2.663838 1.388469 0.354311
v -1.378715 2.156183 0.521122
v 2.577027 -0.125788 2.701687
v -2.166342 0.429688 3.697495
v 2.988094 -0.407350 2.811067
v -2.698130 0.043379 3.705009
v 3.105594 -0.110150 2.813081
v -2.714087 0.344556 3.816473
v 2.650601 0.025048 2.810805
v -2.239789 0.591514 3.853965
v 2.360038 0.181473 2.456803
v -1.480476 0.056762 4.071614
v 1.986241 -0.382130 2.897170
v -1.970390 -0.532881 4.323806
v 2.312060 0.322588 2.593807
v -1.540699 0.174507 4.224894
v 2.034627 -0.147787 3.048124
v -2.036768 -0.284919 4.442773
v 3.279992 -9.492295 0.152151
v -2.949038 -9.492385 2.121564
v 2.436957 -9.492300 1.072972
v -1.979497 -9.492390 2.908081
v 2.389130 -9.223664 1.114599
v -1.926057 -9.223754 2.942204
v 3.300773 -9.210505 0.270683
v -2.952122 -9.210596 2.241864
v 2.178653 -8.450571 -2.015414
v -2.332952 -8.442791 -0.092826
v 1.279300 -8.387058 -1.566397
v -1.311177 -8.471252 -0.072968
v 2.777866 -8.626129 -0.606208
v -2.321863 -8.533244 1.453648
v 1.810615 -8.574986 -0.490395
v -1.364556 -8.569627 1.188058
v 2.616178 -5.355070 -0.261781
v -1.894653 -5.172937 1.139979
v 1.541936 -5.751424 0.613839
v -0.503236 -5.491425 1.340794
v 3.478077 -6.012044 0.901094
v -1.955688 -5.578870 2.675641
v 2.368263 -6.243818 1.351251
v -0.773207 -5.805683 2.479829
v 2.037744 -9.494519 -1.955219
v -2.318869 -9.412140 -0.141862
v 1.343780 -9.482064 -1.615700
v -1.570646 -9.569200 -0.030018
v 1.716934 -9.489993 -0.666331
v -1.602214 -9.555052 1.018770
v 2.644689 -9.494062 -0.743001
v -2.499392 -9.436235 1.175769
v 3.073840 -5.484601 1.560731
v -1.275063 -4.979357 2.908148
v 2.639463 -5.579906 1.679072
v -0.843753 -5.081921 2.784768
v 2.954154 -5.984147 1.127141
v -1.394860 -5.548519 2.571138
v 2.622837 -6.056840 1.217405
v -1.065880 -5.626749 2.477031
v 2.546946 -5.889124 1.451569
v -0.880111 -5.428853 2.599701
v 3.098115 -5.767895 1.296489
v -1.430094 -5.299205 2.752163
v 2.534740 -5.306630 0.319197
v -1.510210 -5.037310 1.564623
v 1.775352 -5.571545 0.802294
v -0.601531 -5.269184 1.592392
v 3.254161 -5.630118 1.035769
v -1.708119 -5.195337 2.599779
v 2.178001 -5.877398 1.409546
v -0.595047 -5.447520 2.362186
v 2.443591 -5.544316 0.134099
v -1.527003 -5.306900 1.403057
v 1.835126 -5.774009 0.541200
v -0.787350 -5.506649 1.444688
v 2.304841 -6.131318 1.074609
v -0.875563 -5.743234 2.199057
v 3.069047 -5.958659 0.843199
v -1.647256 -5.561598 2.396216
v 2.457320 -5.009706 -0.246193
v -1.755587 -4.794573 1.017789
v 1.332800 -5.441075 0.665744
v -0.304822 -5.184550 1.219107
v 3.048257 -4.246136 1.101905
v -1.548159 -3.839420 2.357292
v 2.125342 -4.621539 1.776048
v -0.395472 -4.165198 2.468415
v 2.429200 -5.485918 0.186743
v -1.482048 -5.212118 1.425016
v 1.762666 -5.695898 0.660551
v -0.658654 -5.388497 1.486382
v 2.353983 -5.473080 1.707673
v -0.593143 -4.990283 2.634682
v 3.200363 -5.270394 1.442300
v -1.453187 -4.779283 2.843646
v 0.095534 -2.876126 -0.763721
v 1.484266 -3.143421 -0.587376
v -1.183961 -3.031676 -0.036574
v 0.215119 -3.490690 -0.116109
v 0.797808 -3.916120 0.186791
v -0.162126 -3.729937 0.344641
v 0.472705 -2.885841 1.287521
v 1.308267 -3.085224 1.432286
v 0.040189 -2.731153 1.549890
v 1.188625 -1.585550 -0.831614
v -0.888701 -1.440980 -0.800279
v 0.239203 -1.376382 -0.870169
v 1.640717 -1.537734 0.476538
v -1.110850 -1.306158 0.594763
v 0.392359 -1.828578 1.293080
v 2.498688 -0.205239 1.533510
v -1.797219 0.308215 2.683708
v 3.263114 -0.623737 1.647526
v -2.627396 0.096293 2.487792
v 2.722516 0.332805 1.696011
v -1.944802 0.853197 2.900991
v 3.475348 0.142598 1.728103
v -2.691129 0.868257 2.684807
v 2.950160 -0.184288 0.106615
v -1.758473 0.677452 1.233723
v 3.749730 -0.595376 0.113005
v -2.585534 0.499212 0.929505
v 3.715362 0.252819 0.254036
v -2.411061 1.294469 1.216375
v 3.176288 0.362383 0.286739
v -1.911991 1.228420 1.468873
v 2.926015 -0.234013 0.412038
v -1.843214 0.574777 1.514108
v 3.635547 -0.629191 0.546366
v -2.624199 0.367105 1.357331
v 3.145297 0.290121 0.585197
v -1.992839 1.103617 1.739330
v 3.635396 0.170766 0.653754
v -2.492890 1.110028 1.644191
v 2.845634 -0.087657 0.239533
v -1.673219 0.791620 1.046866
v 3.441855 0.054374 -0.414268
v -2.386256 0.756025 0.505183
v 3.162826 0.259123 0.677668
v -1.866103 1.321581 1.354707
v 3.496426 0.599315 0.278194
v -2.255964 1.526608 0.915876
v 3.110833 -3.242222 1.151794
v -1.606882 -2.835628 2.300703
v 2.102947 -2.378958 1.721479
v -0.480157 -1.951251 2.116403
v 2.668218 -2.120428 0.603164
v -1.568693 -1.813818 1.458226
v 0.136584 -1.906620 -1.087014
v 0.426551 -1.770820 1.487316
v 1.350948 -1.826595 -1.001579
v -1.097583 -1.663930 -0.920033
v 1.846154 -1.719728 0.991354
v -1.271120 -1.442879 1.130415
v 1.498904 -3.240205 -1.008485
v -1.341788 -3.079700 -0.673701
v 0.088717 -4.237719 -0.850946
v 1.617518 2.809978 0.001502
v -0.522560 2.809978 0.001502
v 1.717242 0.782917 1.082433
v -0.817673 1.016361 1.082433
v 1.569352 2.837414 -0.919444
v -0.474393 2.837414 -0.919444
v 2.225780 0.508415 -1.524571
v -1.367791 0.839352 -1.524571
v 0.547479 2.722115 0.763316
v 0.469997 1.119116 1.466884
v 0.547479 2.837414 -1.404940
v 0.464111 1.055202 -1.894466
v 2.310100 2.451864 0.048445
v -1.248214 2.602339 -0.050520
v 1.787218 1.338609 -0.024216
v -0.745687 1.642858 -0.034563
v 2.710525 2.554537 -0.844185
v -1.581827 2.748826 -0.867485
v 2.404803 1.190798 -1.522316
v -1.505155 1.346922 -1.342130
v 0.547479 3.126207 -0.758363
v 1.043129 3.396791 -0.178967
v 0.051830 3.396791 -0.178967
v 0.547479 3.932204 -0.850741
v 1.241220 3.712523 -0.156710
v -0.146262 3.712523 -0.156710
v 1.262081 4.491498 -0.309825
v -0.167122 4.491498 -0.309825
v 0.547479 4.848966 -0.360641
v 1.033834 3.069812 0.401375
v 0.061124 3.069812 0.401375
v 0.547479 2.867993 0.617825
v 1.047228 4.289978 0.765303
v 0.047730 4.289978 0.765303
v 0.547479 4.432628 0.906515
v 1.124518 3.141999 0.727957
v -0.029559 3.259214 0.727957
v 0.547479 2.867341 1.211996
v 2.988009 -4.990149 -2.512717
v 3.224539 -4.995892 -2.429882
v 3.024641 -5.503566 -1.894276
v 2.788111 -5.497824 -1.977110
v 1.775842 -0.535334 1.257370
v 2.012372 -0.541076 1.340205
v 1.812474 -1.048750 1.875812
v 1.575944 -1.043008 1.792977
v 3.269289 -6.065256 -2.894198
vt 0.914441 0.287818
vt 0.755976 0.288291
vt 0.780466 0.263444
vt 0.914441 0.140970
vt 0.887330 0.148901
vt 0.892092 0.263444
vt 0.790594 0.148901
vt 0.764177 0.019745
vt 0.739713 0.169100
vt 0.593245 0.019794
vt 0.765736 0.135915
vt 0.830467 0.068760
vt 0.617794 0.169135
vt 0.669624 0.238675
vt 0.854612 0.068179
vt 0.849503 0.096478
vt 0.976832 0.082209
vt 0.976832 0.086415
vt 0.969148 0.086415
vt 0.934091 0.087237
vt 0.926407 0.087237
vt 0.934091 0.083031
vt 0.943176 0.075459
vt 0.939636 0.075459
vt 0.944189 0.056245
vt 0.966300 0.055737
vt 0.965287 0.074951
vt 0.960735 0.055737
vt 0.858995 0.453541
vt 0.850141 0.449155
vt 0.878375 0.452162
vt 0.888523 0.440962
vt 0.916759 0.449161
vt 0.888522 0.452164
vt 0.959239 0.452140
vt 0.959239 0.440943
vt 0.987465 0.449138
vt 0.920872 0.449133
vt 0.949097 0.440942
vt 0.949096 0.452139
vt 0.954087 0.087618
vt 0.954087 0.081006
vt 0.969148 0.082209
vt 0.949152 0.081828
vt 0.944304 0.024902
vt 0.938509 0.024902
vt 0.966415 0.024394
vt 0.959239 0.393068
vt 0.949565 0.048903
vt 0.949565 0.040732
vt 0.956695 0.040732
vt 0.878376 0.440961
vt 0.878376 0.393068
vt 0.944737 0.466334
vt 0.892877 0.466365
vt 0.950965 0.100763
vt 0.972819 0.100763
vt 0.958876 0.173912
vt 0.929088 0.100763
vt 0.937008 0.173987
vt 0.963594 0.466336
vt 0.968453 0.610126
vt 0.874014 0.466361
vt 0.869719 0.610075
vt 0.964907 0.173912
vt 0.955889 0.264022
vt 0.943045 0.173987
vt 0.934020 0.264190
vt 0.949596 0.610123
vt 0.958864 0.656289
vt 0.888582 0.610079
vt 0.879296 0.656288
vt 0.938423 0.354710
vt 0.932352 0.355051
vt 0.940057 0.264189
vt 0.959088 0.354132
vt 0.965098 0.354676
vt 0.545458 0.902920
vt 0.522882 0.954802
vt 0.520684 0.876299
vt 0.446240 0.903359
vt 0.428183 0.955057
vt 0.429959 0.876542
vt 0.496060 0.865266
vt 0.487666 0.893439
vt 0.475278 0.859951
vt 0.475353 0.887946
vt 0.463070 0.893505
vt 0.504548 0.903203
vt 0.454525 0.865377
vt 0.493920 0.915179
vt 0.456932 0.915278
vt 0.475602 0.980376
vt 0.475522 0.950758
vt 0.465685 0.949596
vt 0.482249 0.913461
vt 0.475416 0.911595
vt 0.468594 0.913497
vt 0.482131 0.928751
vt 0.475468 0.930970
vt 0.468794 0.928787
vt 0.495830 0.929016
vt 0.455097 0.929125
vt 0.485352 0.949543
vt 0.430536 0.822621
vt 0.474100 0.795303
vt 0.433752 0.842870
vt 0.475446 0.841935
vt 0.517125 0.840462
vt 0.388531 0.838968
vt 0.391057 0.819777
vt 0.558416 0.814943
vt 0.562046 0.833956
vt 0.698864 0.909514
vt 0.725814 0.856292
vt 0.775186 0.874759
vt 0.557779 0.875819
vt 0.607201 0.857153
vt 0.631738 0.910626
vt 0.747486 0.924941
vt 0.665111 0.921086
vt 0.665419 0.974452
vt 0.584266 0.925321
vt 0.666478 0.796104
vt 0.667335 0.837972
vt 0.645463 0.854473
vt 0.666192 0.716028
vt 0.688089 0.894498
vt 0.664776 0.902157
vt 0.642174 0.895920
vt 0.290744 0.220447
vt 0.283670 0.224703
vt 0.262587 0.218158
vt 0.117515 0.225917
vt 0.103561 0.225738
vt 0.124567 0.218952
vt 0.269718 0.225042
vt 0.270473 0.236264
vt 0.116890 0.237147
vt 0.283444 0.243754
vt 0.267327 0.242898
vt 0.120112 0.243744
vt 0.104005 0.244786
vt 0.107631 0.239688
vt 0.711353 0.579963
vt 0.711395 0.615973
vt 0.678336 0.576614
vt 0.829877 0.472197
vt 0.794752 0.470039
vt 0.829877 0.428221
vt 0.715765 0.645439
vt 0.682313 0.648675
vt 0.825651 0.504784
vt 0.790109 0.501346
vt 0.718017 0.534778
vt 0.794796 0.431779
vt 0.787715 0.383771
vt 0.717365 0.668990
vt 0.687176 0.675738
vt 0.820485 0.533538
vt 0.788409 0.526369
vt 0.358072 0.231030
vt 0.299334 0.213579
vt 0.357934 0.130226
vt 0.072378 0.131506
vt 0.087770 0.214795
vt 0.029237 0.232921
vt 0.233241 0.199090
vt 0.244223 0.106503
vt 0.140863 0.108656
vt 0.153691 0.199548
vt 0.193453 0.196987
vt 0.192862 0.095570
vt 0.581933 0.083865
vt 0.567879 0.082864
vt 0.552584 0.034379
vt 0.424729 0.037755
vt 0.399248 0.067879
vt 0.388887 0.064383
vt 0.535240 0.169957
vt 0.538229 0.144077
vt 0.402127 0.120585
vt 0.500917 0.156374
vt 0.433156 0.144678
vt 0.396267 0.145968
vt 0.463682 0.169957
vt 0.465344 0.160330
vt 0.364082 0.048675
vt 0.313767 0.130117
vt 0.028216 0.132123
vt 0.021131 0.050650
vt 0.260487 0.070934
vt 0.160314 0.052958
vt 0.124191 0.073277
vt 0.591645 0.675117
vt 0.597555 0.674060
vt 0.592000 0.678597
vt 0.555752 0.702493
vt 0.556309 0.699304
vt 0.561527 0.704226
vt 0.572125 0.683583
vt 0.571123 0.674298
vt 0.562129 0.700781
vt 0.582648 0.701426
vt 0.371086 0.686100
vt 0.368050 0.666387
vt 0.384498 0.690619
vt 0.268890 0.683801
vt 0.287366 0.666386
vt 0.271303 0.690875
vt 0.413668 0.664791
vt 0.411955 0.684247
vt 0.398536 0.689311
vt 0.509205 0.696409
vt 0.496279 0.690196
vt 0.496268 0.670664
vt 0.608479 0.669707
vt 0.609247 0.678304
vt 0.544331 0.702705
vt 0.545713 0.694176
vt 0.447362 0.684774
vt 0.449303 0.711435
vt 0.495246 0.716864
vt 0.456704 0.714024
vt 0.460961 0.687634
vt 0.445846 0.665289
vt 0.464169 0.668356
vt 0.630215 0.667190
vt 0.522903 0.697960
vt 0.524189 0.690107
vt 0.606479 0.629388
vt 0.632833 0.637722
vt 0.633632 0.651642
vt 0.526083 0.594537
vt 0.529321 0.580975
vt 0.556731 0.577411
vt 0.587585 0.621939
vt 0.607103 0.644360
vt 0.553480 0.592040
vt 0.576642 0.573407
vt 0.374221 0.713112
vt 0.339627 0.712882
vt 0.316520 0.712426
vt 0.281934 0.713202
vt 0.316238 0.685114
vt 0.339407 0.665500
vt 0.284642 0.686145
vt 0.315991 0.665047
vt 0.529838 0.683583
vt 0.528071 0.659869
vt 0.626593 0.690107
vt 0.580988 0.710611
vt 0.447665 0.606144
vt 0.454950 0.610952
vt 0.412887 0.609477
vt 0.501867 0.615629
vt 0.459836 0.613432
vt 0.467052 0.609341
vt 0.775494 0.583691
vt 0.813517 0.588020
vt 0.815863 0.606945
vt 0.683758 0.460447
vt 0.686250 0.440340
vt 0.726648 0.435740
vt 0.521631 0.663415
vt 0.623144 0.713621
vt 0.632761 0.694100
vt 0.775301 0.609485
vt 0.819703 0.619694
vt 0.679678 0.473993
vt 0.726853 0.463146
vt 0.526083 0.620212
vt 0.533444 0.612255
vt 0.526840 0.645740
vt 0.625135 0.612255
vt 0.631641 0.573407
vt 0.632246 0.607531
vt 0.781330 0.558471
vt 0.817575 0.570705
vt 0.681938 0.421943
vt 0.361115 0.605822
vt 0.367833 0.613995
vt 0.330041 0.611965
vt 0.324511 0.611371
vt 0.286756 0.613997
vt 0.293344 0.605720
vt 0.780326 0.630030
vt 0.784225 0.647783
vt 0.678336 0.491192
vt 0.717372 0.503837
vt 0.174586 0.692328
vt 0.106409 0.704728
vt 0.160895 0.606705
vt 0.089972 0.625325
vt 0.084418 0.701550
vt 0.027591 0.611948
vt 0.126124 0.761541
vt 0.186692 0.756658
vt 0.019346 0.693569
vt 0.011432 0.754993
vt 0.177014 0.547650
vt 0.143813 0.537032
vt 0.125225 0.470147
vt 0.100181 0.470147
vt 0.081593 0.537032
vt 0.048392 0.547650
vt 0.122248 0.397123
vt 0.173161 0.486053
vt 0.053313 0.403155
vt 0.103157 0.397123
vt 0.052245 0.486053
vt 0.112703 0.530651
vt 0.112703 0.480052
vt 0.762486 0.589617
vt 0.769818 0.590616
vt 0.769830 0.601973
vt 0.732666 0.455165
vt 0.732678 0.443098
vt 0.740469 0.442036
vt 0.755288 0.589991
vt 0.757467 0.602381
vt 0.739187 0.456010
vt 0.748116 0.442434
vt 0.753511 0.611155
vt 0.748157 0.581262
vt 0.755693 0.433160
vt 0.745801 0.455598
vt 0.762038 0.581851
vt 0.740944 0.433785
vt 0.764564 0.611048
vt 0.763692 0.602769
vt 0.738261 0.464806
vt 0.750004 0.464920
vt 0.737804 0.404840
vt 0.750426 0.551665
vt 0.764994 0.554608
vt 0.753282 0.401714
vt 0.744636 0.489593
vt 0.758564 0.634377
vt 0.750912 0.512628
vt 0.588034 0.637965
vt 0.573377 0.589102
vt 0.447215 0.594650
vt 0.412250 0.592415
vt 0.452044 0.581559
vt 0.460728 0.592491
vt 0.461365 0.582526
vt 0.500384 0.595899
vt 0.365011 0.252495
vt 0.369510 0.248396
vt 0.392432 0.263640
vt 0.392432 0.263639
vt 0.418139 0.253795
vt 0.421629 0.258781
vt 0.606857 0.436167
vt 0.630215 0.445685
vt 0.603035 0.487083
vt 0.610996 0.341636
vt 0.615890 0.312339
vt 0.642430 0.354150
vt 0.563907 0.248796
vt 0.565481 0.218718
vt 0.614412 0.236245
vt 0.440981 0.211821
vt 0.491874 0.211819
vt 0.487430 0.241609
vt 0.470518 0.370455
vt 0.460765 0.396377
vt 0.441663 0.366447
vt 0.575105 0.381673
vt 0.547498 0.398600
vt 0.572930 0.373825
vt 0.373612 0.291232
vt 0.351834 0.292881
vt 0.425627 0.301073
vt 0.396289 0.269186
vt 0.506346 0.374046
vt 0.508223 0.366447
vt 0.543924 0.371135
vt 0.437753 0.481952
vt 0.502519 0.398574
vt 0.506346 0.391202
vt 0.550355 0.487168
vt 0.394192 0.416633
vt 0.399444 0.391976
vt 0.421450 0.420954
vt 0.355139 0.391976
vt 0.375993 0.391976
vt 0.353987 0.420954
vt 0.391164 0.510692
vt 0.430069 0.510850
vt 0.381245 0.416633
vt 0.345368 0.510850
vt 0.530655 0.241262
vt 0.538441 0.213302
vt 0.519451 0.211892
vt 0.531530 0.331639
vt 0.564059 0.335343
vt 0.521517 0.240843
vt 0.470056 0.326394
vt 0.354367 0.363483
vt 0.381250 0.364349
vt 0.404740 0.294688
vt 0.609562 0.408632
vt 0.637111 0.275608
vt 0.639393 0.303182
vt 0.444054 0.491054
vt 0.470767 0.497321
vt 0.508237 0.483857
vt 0.514704 0.494591
vt 0.402507 0.516461
vt 0.423181 0.515253
vt 0.384272 0.510692
vt 0.352256 0.515253
vt 0.535165 0.338969
vt 0.502672 0.329238
vt 0.497651 0.335698
vt 0.355575 0.370105
vt 0.407669 0.369401
vt 0.405038 0.375597
vt 0.137568 0.350541
vt 0.144847 0.340588
vt 0.160134 0.357015
vt 0.067046 0.344891
vt 0.080558 0.340587
vt 0.065270 0.357014
vt 0.137975 0.366258
vt 0.154156 0.369965
vt 0.087837 0.350540
vt 0.071250 0.369965
vt 0.161719 0.379747
vt 0.125076 0.369779
vt 0.087431 0.366257
vt 0.100330 0.369778
vt 0.134870 0.328319
vt 0.169636 0.337570
vt 0.158359 0.344891
vt 0.055769 0.337569
vt 0.090535 0.328318
vt 0.122321 0.344957
vt 0.103084 0.344956
vt 0.174912 0.357194
vt 0.050492 0.357194
vt 0.063687 0.379746
vt 0.101240 0.578213
vt 0.103049 0.561089
vt 0.144425 0.553981
vt 0.040260 0.561248
vt 0.079729 0.565697
vt 0.082376 0.581772
vt 0.101774 0.600390
vt 0.143022 0.566704
vt 0.042282 0.573189
vt 0.083085 0.602748
vt 0.185686 0.344732
vt 0.186112 0.331813
vt 0.223977 0.340452
vt 0.265983 0.328318
vt 0.297300 0.331821
vt 0.259431 0.340451
vt 0.189706 0.362113
vt 0.224050 0.357336
vt 0.297724 0.344740
vt 0.259355 0.357337
vt 0.257474 0.792000
vt 0.261892 0.804371
vt 0.226619 0.793958
vt 0.231370 0.545943
vt 0.261892 0.552036
vt 0.226619 0.562450
vt 0.257883 0.775920
vt 0.257473 0.564408
vt 0.218949 0.581812
vt 0.095887 0.624634
vt 0.037295 0.589141
vt 0.177014 0.385326
vt 0.293699 0.362121
vt 0.306387 0.385338
vt 0.194387 0.471150
vt 0.234072 0.371324
vt 0.249330 0.371323
vt 0.288994 0.471160
vt 0.259235 0.759583
vt 0.197435 0.760411
vt 0.257883 0.580488
vt 0.197435 0.595998
vt 0.246816 0.694887
vt 0.186291 0.692811
vt 0.259234 0.596825
vt 0.186291 0.663597
vt 0.172092 0.403155
vt 0.231236 0.440415
vt 0.241688 0.492736
vt 0.241692 0.454470
vt 0.252151 0.440416
vt 0.195568 0.537275
vt 0.241683 0.539581
vt 0.183027 0.678204
vt 0.246363 0.678204
vt 0.721515 0.484975
vt 0.732951 0.486876
vt 0.769562 0.631820
vt 0.767517 0.651941
vt 0.735123 0.508254
vt 0.224968 0.052542
vt 0.279762 0.024590
vt 0.105164 0.025596
vt 0.244349 0.269375
vt 0.193811 0.259286
vt 0.143392 0.269955
vt 0.333824 0.296929
vt 0.054241 0.298536
vt 0.292146 0.286779
vt 0.096438 0.221564
vt 0.095799 0.287907
vt 0.231616 0.877603
vt 0.248482 0.861732
vt 0.294716 0.891207
vt 0.105291 0.890449
vt 0.150444 0.859615
vt 0.165478 0.882401
vt 0.344455 0.899873
vt 0.334505 0.936709
vt 0.287131 0.911145
vt 0.113622 0.910834
vt 0.065680 0.937434
vt 0.054691 0.900020
vt 0.287116 0.946266
vt 0.113701 0.946303
vt 0.296812 0.984378
vt 0.104440 0.984378
vt 0.231299 0.943773
vt 0.221686 0.972914
vt 0.178236 0.972038
vt 0.199923 0.881814
vt 0.199197 0.840470
vt 0.200206 0.952386
vt 0.168364 0.943485
vt 0.299537 0.838891
vt 0.342599 0.847171
vt 0.055814 0.845592
vt 0.377828 0.890119
vt 0.020096 0.890454
vt 0.100153 0.836562
vt 0.864135 0.757298
vt 0.876593 0.720502
vt 0.889414 0.757382
vt 0.923645 0.720502
vt 0.936194 0.807088
vt 0.917456 0.807335
vt 0.847912 0.720502
vt 0.860500 0.757398
vt 0.834953 0.757482
vt 0.905826 0.720502
vt 0.913046 0.807238
vt 0.894502 0.807467
vt 0.962603 0.728923
vt 0.936921 0.728923
vt 0.962603 0.720502
vt 0.936194 0.951480
vt 0.860500 0.951150
vt 0.913822 0.950939
vt 0.864135 0.950701
vt 0.889414 0.950718
vt 0.835588 0.096478
vt 0.687923 0.238670
vt 0.926407 0.083031
vt 0.938624 0.056245
vt 0.961748 0.074951
vt 0.907903 0.453545
vt 0.978613 0.453521
vt 0.929723 0.453517
vt 0.949152 0.088440
vt 0.960620 0.024394
vt 0.949097 0.393068
vt 0.956695 0.048903
vt 0.888523 0.393068
vt 0.961920 0.264021
vt 0.405329 0.903297
vt 0.519167 0.820061
vt 0.688215 0.852013
vt 0.279761 0.238699
vt 0.678336 0.618005
vt 0.687500 0.533538
vt 0.820139 0.382453
vt 0.571753 0.027602
vt 0.413037 0.027158
vt 0.312989 0.079163
vt 0.072570 0.080547
vt 0.597883 0.677278
vt 0.386799 0.683509
vt 0.395952 0.682464
vt 0.512376 0.689814
vt 0.410659 0.710905
vt 0.630936 0.675105
vt 0.339478 0.685569
vt 0.420940 0.605256
vt 0.493828 0.610701
vt 0.522766 0.678798
vt 0.630534 0.709354
vt 0.533009 0.651642
vt 0.637486 0.582535
vt 0.720447 0.408945
vt 0.337842 0.604624
vt 0.316595 0.604154
vt 0.820966 0.635882
vt 0.068906 0.756290
vt 0.752657 0.656058
vt 0.412250 0.582430
vt 0.496401 0.582526
vt 0.387452 0.268205
vt 0.634657 0.475054
vt 0.615355 0.228849
vt 0.440434 0.219256
vt 0.437753 0.373591
vt 0.479515 0.488348
vt 0.420298 0.391976
vt 0.630499 0.408973
vt 0.616172 0.275627
vt 0.542141 0.494591
vt 0.372929 0.516461
vt 0.556653 0.338969
vt 0.476593 0.331422
vt 0.373573 0.369391
vt 0.387635 0.370952
vt 0.149260 0.583232
vt 0.217429 0.328318
vt 0.231370 0.810465
vt 0.218949 0.774596
vt 0.246816 0.661521
vt 0.287799 0.537285
vt 0.199373 0.827468
vt 0.936921 0.720502
vt 0.917456 0.951131
vt 0.834952 0.951168
vt 0.895278 0.950616
vn 0.761467 0.563677 -0.319956
vn -0.645711 0.693289 -0.319956
vn -0.429212 0.393567 0.812891
vn 0.763115 -0.405408 -0.503220
vn 0.534227 -0.289529 0.794183
vn 0.493881 0.308573 0.812922
vn -0.578112 -0.187078 0.794183
vn -0.824335 -0.259194 -0.503220
vn -0.450026 -0.767693 -0.456130
vn 0.302255 -0.837001 -0.456130
vn 0.272835 -0.586016 0.762932
vn -0.171606 0.200018 -0.964629
vn -0.865566 0.451277 -0.216987
vn -0.106998 0.895566 0.431837
vn 0.091433 0.737419 0.669179
vn 0.103122 -0.320627 0.941557
vn 0.873806 0.454146 -0.173681
vn -0.944243 0.148259 0.293863
vn 0.666768 -0.636708 -0.387280
vn 0.797052 -0.571856 0.193915
vn -0.480422 -0.221351 0.848628
vn -0.614460 0.569872 0.545579
vn -0.342998 0.353557 0.870235
vn 0.614765 0.124821 -0.778741
vn 0.202918 -0.267067 -0.942045
vn 0.886227 -0.091464 -0.454085
vn 0.675344 0.612293 -0.411054
vn -0.992615 -0.093326 -0.077090
vn -0.228339 -0.370037 -0.900479
vn 0.430921 -0.895383 -0.111972
vn -0.333323 -0.618671 0.711386
vn 0.832301 -0.552629 0.042573
vn -0.028596 -0.240913 0.970092
vn -0.031251 0.135472 -0.990265
vn 0.072054 0.228095 -0.970946
vn -0.892209 0.447188 -0.062716
vn -0.825800 0.563829 0.010529
vn -0.003876 -0.094150 0.995544
vn 0.900327 -0.434706 0.019654
vn 0.768914 0.590197 -0.245735
vn 0.072329 0.855159 0.513260
vn -0.929364 -0.324734 0.175586
vn -0.856705 0.342802 0.385413
vn -0.893910 -0.169464 -0.414979
vn 0.874447 0.070406 -0.479934
vn 0.856705 0.342802 0.385413
vn 0.893910 -0.169464 -0.414979
vn -0.470866 -0.026189 -0.881816
vn -0.462233 0.131046 -0.876980
vn -0.000000 0.000000 -1.000000
vn 0.000000 0.055391 -0.998444
vn 0.462233 0.131046 -0.876980
vn -0.874447 0.070406 -0.479934
vn 0.470866 -0.026189 -0.881816
vn -0.771416 0.517502 -0.370251
vn 0.771416 0.517502 -0.370251
vn 0.000000 0.203251 0.979127
vn 0.000000 0.774132 0.632984
vn 0.729118 0.684255 -0.011231
vn -0.735801 0.535020 -0.415052
vn 0.000000 0.701926 -0.712210
vn 0.735801 0.535020 -0.415052
vn -0.723960 0.688101 -0.048189
vn 0.000000 0.997284 0.073428
vn 0.723960 0.688101 -0.048189
vn -0.714042 0.681845 0.158696
vn 0.714042 0.681845 0.158696
vn -0.729118 0.684255 -0.011231
vn -0.918823 -0.092730 0.383622
vn 0.004383 0.068018 0.997675
vn -0.912888 -0.027436 0.407288
vn -0.010260 0.142090 0.989801
vn 0.913057 -0.021912 0.407242
vn -0.994733 -0.035600 -0.096115
vn -0.994769 -0.039154 -0.094351
vn 0.994769 -0.039154 -0.094351
vn 0.994733 -0.035600 -0.096115
vn 0.267971 0.575191 -0.772882
vn 0.506225 0.503600 0.700088
vn 0.402073 0.817166 0.413009
vn -0.401999 0.817149 0.413116
vn -0.501751 0.517658 0.693019
vn -0.267940 0.575390 -0.772745
vn 0.446439 0.833080 -0.326604
vn 0.000031 0.412885 -0.910764
vn 0.000093 0.719351 -0.694647
vn -0.446311 0.833240 -0.326370
vn -0.003510 0.221839 0.975066
vn 0.002785 -0.372662 0.927963
vn -0.681786 -0.356398 0.638865
vn -0.000001 0.537281 0.843404
vn 0.228688 0.111335 -0.967112
vn -0.000000 0.011235 -0.999937
vn -0.228688 0.111335 -0.967112
vn 0.689718 0.095248 -0.717765
vn 0.826868 -0.378918 0.415509
vn 0.983245 -0.028840 0.179846
vn -0.033753 -0.657552 0.752617
vn -0.765007 -0.204718 0.610584
vn -0.992462 0.058138 0.107822
vn 0.197882 -0.644826 0.738243
vn 0.840938 -0.174474 0.512192
vn -0.991638 -0.127079 0.021393
vn 0.706992 0.629292 -0.322642
vn 0.767754 0.290567 0.571001
vn -0.937681 0.280251 0.205329
vn -0.574725 0.690939 -0.438490
vn -0.734642 0.678243 0.015351
vn 0.292825 -0.423872 -0.857051
vn -0.855159 -0.485855 0.180578
vn 0.850032 -0.487594 0.199133
vn -0.214545 0.283853 0.934538
vn 0.428327 0.586596 0.687277
vn 0.782556 0.561602 0.268624
vn -0.481338 -0.690939 -0.539323
vn -0.667867 0.727775 0.155797
vn 0.815119 0.557482 0.157262
vn 0.007538 0.033113 -0.999420
vn 0.751122 -0.155034 -0.641652
vn -0.044708 -0.251703 -0.966771
vn -0.456856 -0.841764 -0.287604
vn -0.745781 -0.039003 -0.664998
vn 0.701590 0.136357 0.699362
vn 0.645309 -0.655820 0.391761
vn -0.696012 -0.548786 0.463034
vn -0.670003 0.271462 0.690909
vn 0.026734 0.269662 0.962554
vn 0.076999 0.005891 0.997014
vn 0.242579 -0.904093 -0.351812
vn -0.199042 -0.964232 -0.174871
vn -0.165502 -0.984405 -0.059542
vn 0.065798 -0.988037 0.139317
vn -0.200354 -0.296487 0.933775
vn -0.074068 -0.963897 0.255715
vn 0.489303 -0.601581 0.631367
vn -0.478866 -0.666921 0.570849
vn -0.048741 -0.955003 0.292563
vn -0.116855 -0.604907 0.787652
vn -0.103011 -0.083959 -0.991131
vn -0.040725 -0.099843 -0.994169
vn 0.009892 -0.067507 -0.997670
vn -0.180578 -0.109469 -0.977450
vn 0.328960 -0.215773 0.919362
vn 0.345633 0.732297 0.586753
vn 0.566223 0.622566 0.540188
vn -0.144773 0.893101 0.425923
vn -0.025630 0.911278 0.410992
vn -0.174175 0.732698 0.657888
vn -0.001617 0.234657 -0.972045
vn -0.834468 -0.381024 -0.398022
vn -0.149327 0.957732 -0.245766
vn 0.219184 -0.171941 0.960387
vn 0.788415 -0.583911 0.193426
vn 0.287179 0.836329 0.466933
vn 0.028138 0.996826 -0.074252
vn -0.835536 -0.532670 -0.134587
vn 0.822565 0.407575 -0.396527
vn 0.947356 -0.131199 -0.292001
vn 0.188604 0.911161 0.366253
vn -0.922941 0.205420 0.325449
vn -0.035127 0.900998 0.432356
vn 0.165929 -0.982574 -0.083407
vn 0.572802 0.012757 -0.819575
vn -0.330699 0.153325 0.931181
vn -0.092502 -0.857692 0.505722
vn -0.690573 -0.709006 -0.142735
vn 0.933378 -0.087619 -0.347972
vn 0.128086 -0.966613 0.221839
vn -0.476760 -0.837855 -0.265786
vn 0.347087 -0.871090 0.347392
vn -0.681997 -0.731284 0.007111
vn 0.180181 0.167302 -0.969268
vn 0.655660 0.544633 0.522935
vn 0.334147 0.193060 0.922513
vn -0.735710 0.232826 0.635975
vn -0.175787 -0.100650 0.979247
vn -0.648000 0.070467 0.758354
vn 0.796808 0.331706 0.504990
vn -0.802881 0.373058 0.464919
vn -0.103732 0.967711 -0.229591
vn -0.314463 0.842128 -0.438063
vn -0.704550 -0.219398 -0.674856
vn 0.817011 -0.301675 -0.491348
vn 0.304422 -0.314615 -0.899075
vn 0.409284 -0.780267 -0.472915
vn -0.392407 -0.556871 -0.732017
vn -0.061739 -0.073519 -0.995361
vn 0.495773 -0.831965 0.248970
vn -0.258858 0.022370 -0.965636
vn 0.550371 0.106998 -0.827998
vn -0.715049 -0.691702 -0.101108
vn 0.588458 0.791742 -0.163671
vn -0.952422 -0.296487 -0.070315
vn -0.073611 0.519578 -0.851222
vn 0.445296 0.610584 -0.654866
vn 0.842677 -0.524705 0.120487
vn 0.484695 0.391552 -0.782128
vn 0.800287 0.470107 -0.372173
vn -0.528459 0.719352 -0.450819
vn 0.760552 0.573931 0.303507
vn -0.119846 0.626881 -0.769829
vn -0.433424 0.897732 0.078646
vn -0.685415 0.699423 0.202429
vn 0.335459 -0.182653 -0.924161
vn 0.844752 0.493149 0.207739
vn 0.358104 -0.311075 -0.880306
vn -0.656453 0.352763 0.666768
vn -0.588672 0.594317 0.547899
vn -0.770714 -0.405103 -0.491775
vn -0.735679 -0.220222 -0.640492
vn -0.107089 0.008209 0.994201
vn 0.589129 0.230262 0.774499
vn -0.095889 -0.019105 0.995178
vn 0.618488 0.102786 0.779015
vn -0.120945 -0.540727 0.832453
vn -0.177404 -0.879238 -0.442091
vn -0.378552 -0.924528 0.043275
vn -0.584826 -0.809412 0.052492
vn 0.357555 -0.933714 0.017243
vn 0.145756 -0.986572 -0.073489
vn 0.115909 -0.919614 -0.375317
vn -0.428816 -0.386670 -0.816431
vn -0.474288 -0.532640 -0.700919
vn 0.462508 -0.860378 -0.213935
vn 0.274636 -0.782220 -0.559160
vn -0.620075 -0.742485 0.253304
vn 0.438490 -0.309885 -0.843593
vn -0.595416 -0.508744 -0.621754
vn 0.482894 -0.728507 -0.485855
vn 0.697317 -0.631275 -0.339335
vn -0.767174 -0.489853 -0.414014
vn -0.702963 0.476608 -0.527848
vn -0.615131 -0.763146 -0.197943
vn 0.896481 -0.423383 0.130436
vn 0.873684 -0.481338 0.070467
vn -0.717856 0.677602 0.159703
vn 0.884671 0.337443 0.321635
vn 0.810358 0.449934 -0.375225
vn -0.762596 0.591266 0.262276
vn 0.428144 0.547624 0.718863
vn 0.136876 -0.402326 0.905179
vn -0.196173 0.338572 0.920225
vn -0.066286 -0.618305 0.783105
vn 0.781426 -0.623768 -0.014893
vn -0.797662 -0.602008 0.035768
vn 0.184423 -0.623646 0.759606
vn 0.319315 0.364208 0.874844
vn -0.668081 -0.699301 0.254158
vn 0.575427 -0.744133 -0.339244
vn -0.778497 -0.596759 -0.194342
vn -0.754234 0.031831 0.655812
vn 0.576342 -0.813379 0.078829
vn 0.891201 -0.157781 0.425214
vn 0.987976 0.154515 0.004517
vn -0.854518 0.376263 0.358013
vn -0.742088 0.345622 0.574267
vn 0.221656 -0.612232 -0.758934
vn -0.579089 -0.490463 -0.651173
vn 0.836299 0.277322 0.472915
vn 0.304544 0.186041 -0.934141
vn -0.671377 0.198492 -0.713981
vn -0.452986 0.418989 0.786889
vn -0.895230 0.220008 -0.387463
vn 0.485946 -0.705130 -0.516312
vn 0.688162 0.030183 -0.724906
vn 0.165563 0.877071 -0.450880
vn -0.762444 0.562761 0.319254
vn 0.788232 0.567064 -0.238899
vn -0.755577 -0.583514 -0.297647
vn -0.113376 0.097201 0.988769
vn 0.635426 0.266427 0.724693
vn 0.678671 0.584735 0.444319
vn -0.013306 0.998962 0.042940
vn -0.421064 0.805383 -0.417158
vn -0.000336 0.990051 -0.140599
vn -0.300546 0.890591 0.341288
vn 0.406934 0.912809 -0.033753
vn -0.087588 0.373547 0.923460
vn 0.565691 0.510330 0.647694
vn 0.082156 -0.705313 0.704093
vn 0.177740 -0.903409 0.390118
vn 0.661946 -0.568651 0.488296
vn -0.170080 -0.759697 0.627583
vn 0.096591 -0.816065 0.569811
vn -0.266213 -0.439772 0.857723
vn 0.168615 -0.256172 0.951781
vn 0.538804 -0.142674 0.830256
vn 0.341441 -0.576678 0.742180
vn 0.009003 0.026795 0.999573
vn 0.856929 0.210974 0.470229
vn -0.288217 -0.158086 0.944395
vn 0.389019 -0.089084 0.916898
vn 0.760125 -0.035890 0.648732
vn 0.435774 -0.848323 0.300638
vn -0.344676 0.690390 0.636006
vn -0.596637 -0.515336 0.615131
vn 0.835963 -0.467940 0.286630
vn 0.981109 -0.011231 -0.193060
vn -0.925626 0.020417 0.377850
vn -0.472304 0.321787 0.820551
vn -0.326334 0.883908 -0.334910
vn 0.071169 0.774529 -0.628498
vn 0.411084 -0.851405 -0.325694
vn -0.254189 -0.090457 -0.962889
vn 0.352123 -0.880154 -0.318308
vn -0.074404 -0.986633 0.144780
vn 0.154790 -0.974242 0.163793
vn 0.926572 0.286111 0.244087
vn -0.451521 -0.891751 0.029633
vn -0.756096 -0.654439 0.002045
vn 0.644581 -0.696493 -0.315195
vn -0.769311 -0.615558 -0.170904
vn -0.212928 -0.358440 -0.908933
vn -0.198096 -0.918943 -0.340922
vn 0.519211 -0.713706 -0.470107
vn 0.561388 0.725364 0.398297
vn 0.539323 0.626514 0.562639
vn 0.201910 0.686026 -0.698965
vn 0.451337 0.791956 0.411219
vn 0.711363 0.514723 0.478563
vn -0.355941 0.602372 0.714461
vn 0.421094 0.788202 0.448744
vn 0.012207 0.527665 0.849330
vn -0.369182 0.808740 0.457839
vn 0.016816 0.612629 -0.790155
vn 0.360271 0.760521 -0.540147
vn -0.871120 0.227393 -0.435194
vn -0.317392 0.780358 -0.538774
vn 0.840388 -0.422315 0.339610
vn 0.879452 -0.334758 0.338328
vn 0.962676 -0.013703 -0.270211
vn -0.968993 -0.007416 -0.246864
vn -0.880001 -0.266488 0.393109
vn -0.877468 -0.286233 0.384808
vn 0.000000 0.733909 -0.679220
vn 0.000000 0.200537 -0.979675
vn 0.924741 -0.136326 -0.355266
vn -0.925596 -0.146977 -0.348735
vn 0.717277 0.418928 -0.556749
vn -0.716697 0.419294 -0.557207
vn 0.000000 0.894894 -0.446242
vn 0.678213 0.475570 0.560167
vn 0.000000 0.678701 0.734397
vn -0.011048 -0.631519 0.775231
vn 0.000000 -0.399609 0.916654
vn -0.676382 0.477309 0.560930
vn -0.426618 0.372082 -0.824335
vn 0.237617 -0.742943 -0.625721
vn -0.797052 -0.578753 0.172369
vn 0.857204 0.359081 -0.369060
vn 0.479598 -0.602710 0.637715
vn -0.511216 0.828059 -0.230049
vn -0.813105 0.061342 0.578845
vn 0.578295 0.801630 0.151494
vn 0.276376 0.034913 0.960387
vn -0.375286 -0.526322 0.762932
vn 0.929364 -0.324734 0.175586
vn 0.920926 -0.092333 0.378642
vn 0.650913 -0.438778 0.619505
vn 0.007334 -0.379734 0.925067
vn -0.106619 -0.006302 -0.994280
vn -0.224386 -0.129350 -0.965877
vn -0.025283 0.673304 0.738934
vn 0.897977 0.312571 0.309671
s 1
f 5/1/1 8/2/2 7/3/3
f 1/4/4 5/1/1 2/5/5
f 2/5/5 6/6/6 7/3/3
f 3/7/7 7/3/3 8/2/2
f 5/8/1 1/9/4 8/10/2
f 3/7/7 4/11/8 9/12/9
f 4/13/8 1/9/4 9/14/9
f 1/4/4 2/5/5 12/15/10
f 2/5/5 3/7/7 11/16/11
f 12/15/10 11/16/11 9/12/9
f 15/17/12 13/18/13 19/19/14
f 20/20/15 14/21/16 18/22/17
f 13/23/13 15/24/12 27/25/18
f 26/26/19 16/27/20 28/28/21
f 19/29/14 13/30/13 21/31/22
f 28/32/21 14/33/16 22/34/23
f 23/35/24 25/36/25 15/37/12
f 16/38/20 26/39/19 24/40/26
f 21/41/22 23/42/24 17/43/27
f 18/22/17 24/44/26 20/20/15
f 31/45/28 27/25/18 29/46/29
f 26/26/19 28/28/21 30/47/30
f 25/36/25 26/39/19 29/48/29
f 29/49/29 30/50/30 32/51/31
f 27/52/18 31/53/28 28/32/21
f 21/31/22 27/52/18 22/34/23
f 23/35/24 24/40/26 25/36/25
f 24/40/26 23/35/24 33/54/32
f 21/31/22 22/34/23 35/55/33
f 22/56/23 24/57/26 35/58/33
f 23/59/24 21/56/22 34/60/34
f 33/54/32 34/61/34 38/62/35
f 36/63/36 35/55/33 40/64/37
f 35/58/33 33/65/32 39/66/38
f 34/60/34 36/67/36 38/68/35
f 37/69/39 38/62/35 41/70/40
f 39/71/38 42/72/41 40/64/37
f 42/73/41 41/74/40 40/75/37
f 42/76/41 39/66/38 41/77/40
f 43/78/42 67/79/43 46/80/44
f 53/81/45 68/82/46 47/83/47
f 48/84/48 54/85/49 45/86/50
f 51/87/51 55/88/52 45/86/50
f 46/80/44 52/89/53 48/84/48
f 55/88/52 53/81/45 49/90/54
f 57/91/55 52/89/53 67/79/43
f 68/82/46 53/81/45 58/92/56
f 50/93/57 66/94/58 67/79/43
f 70/95/59 66/94/58 68/82/46
f 54/85/49 59/96/60 56/97/61
f 56/97/61 60/98/62 55/88/52
f 52/89/53 57/91/55 59/96/60
f 60/98/62 58/92/56 53/81/45
f 59/96/60 64/99/63 61/100/64
f 61/100/64 65/101/65 60/98/62
f 57/91/55 62/102/66 59/96/60
f 65/101/65 63/103/67 60/98/62
f 64/99/63 69/104/68 66/94/58
f 66/94/58 70/95/59 65/101/65
f 62/102/66 67/79/43 64/99/63
f 70/95/59 68/82/46 65/101/65
f 73/105/69 71/106/70 75/107/71
f 72/108/72 71/106/70 76/109/73
f 75/107/71 79/110/74 77/111/75
f 78/112/76 80/113/77 76/109/73
f 81/114/78 84/115/79 89/116/80
f 90/117/81 85/118/82 82/119/83
f 81/114/78 87/120/84 83/121/85
f 91/122/86 88/123/87 83/121/85
f 86/124/88 84/115/79 94/125/89
f 93/126/90 85/118/82 94/125/89
f 84/115/79 86/124/88 95/127/91
f 95/127/91 86/124/88 85/118/82
f 81/114/78 83/121/85 96/128/92
f 98/129/93 83/121/85 97/130/94
f 327/131/95 101/132/96 323/133/97
f 100/134/98 102/135/99 324/136/100
f 323/133/97 99/137/101 105/138/102
f 106/139/103 100/134/98 324/136/100
f 325/140/104 321/141/105 105/138/102
f 106/139/103 322/142/106 326/143/107
f 327/131/95 325/140/104 101/132/96
f 104/144/108 326/143/107 102/135/99
f 149/145/109 147/146/110 101/147/96
f 100/148/98 148/149/111 102/150/99
f 147/146/110 153/151/112 105/152/102
f 106/153/103 154/154/113 148/149/111
f 151/155/114 149/145/109 101/147/96
f 102/150/99 150/156/115 152/157/116
f 153/151/112 151/158/114 103/159/117
f 104/160/108 152/161/116 154/154/113
f 320/162/118 315/163/119 300/164/120
f 303/165/121 316/166/122 320/167/118
f 315/163/119 311/168/123 304/169/124
f 305/170/125 312/171/126 316/166/122
f 318/172/127 301/173/128 304/169/124
f 305/170/125 301/173/128 318/172/127
f 302/174/129 256/175/130 258/176/131
f 258/177/131 257/178/132 303/179/121
f 304/180/124 259/181/133 302/174/129
f 257/178/132 260/182/134 303/179/121
f 304/180/124 133/183/135 259/181/133
f 260/182/134 134/184/136 305/185/125
f 304/180/124 301/186/137 261/187/138
f 261/187/138 301/186/137 305/185/125
f 308/188/139 300/164/140 302/189/141
f 303/165/142 300/190/140 308/191/139
f 304/169/143 301/173/144 298/192/145
f 297/193/146 301/173/147 299/194/148
f 109/195/149 113/196/150 107/197/151
f 112/198/152 114/199/153 108/200/154
f 161/201/155 155/202/156 109/195/149
f 110/203/157 156/204/158 108/200/154
f 121/205/159 161/206/155 111/207/160
f 108/208/154 162/209/161 112/210/152
f 155/211/156 115/212/162 113/213/150
f 114/214/153 116/215/163 156/216/158
f 115/217/162 121/218/159 113/196/150
f 112/198/152 122/219/164 116/220/163
f 117/221/165 165/222/166 115/212/162
f 164/223/167 166/224/168 118/225/169
f 157/226/170 117/221/165 115/212/162
f 116/215/163 118/225/169 158/227/171
f 115/217/162 163/228/172 121/218/159
f 168/229/173 164/230/167 122/219/164
f 119/231/174 169/232/175 165/233/166
f 166/234/168 170/235/176 120/236/177
f 159/237/178 119/231/174 117/238/165
f 118/239/169 120/236/177 160/240/179
f 121/205/159 167/241/180 169/242/175
f 170/243/176 168/244/173 120/245/177
f 161/206/155 121/205/159 159/246/178
f 120/245/177 122/247/164 160/248/179
f 266/249/181 262/250/182 161/201/155
f 156/204/158 263/251/183 162/252/161
f 125/253/184 264/254/185 262/255/182
f 263/256/183 265/257/186 126/258/187
f 280/259/188 125/260/184 123/261/189
f 124/262/190 126/263/187 281/264/191
f 123/265/189 262/250/182 266/249/181
f 267/266/192 263/251/183 124/267/190
f 278/268/193 123/261/189 129/269/194
f 130/270/195 124/262/190 279/271/196
f 127/272/197 268/273/198 125/274/184
f 265/275/186 269/276/199 126/277/187
f 284/278/200 127/279/197 280/259/188
f 126/263/187 128/280/201 281/264/191
f 129/281/194 266/282/181 268/283/198
f 269/284/199 267/285/192 130/286/195
f 282/287/202 129/269/194 284/288/200
f 128/289/201 130/270/195 285/290/203
f 248/291/204 131/292/205 231/293/206
f 236/294/207 132/295/208 232/296/209
f 259/297/133 131/292/205 256/298/130
f 249/299/210 132/295/208 257/300/132
f 259/301/133 133/302/135 254/303/211
f 255/304/212 134/305/136 260/306/134
f 254/303/211 237/307/213 131/308/205
f 236/309/207 238/310/214 132/311/208
f 261/312/138 253/313/215 254/303/211
f 255/304/212 253/313/215 134/305/136
f 143/314/216 139/315/217 141/316/218
f 142/317/219 140/318/220 144/319/221
f 135/320/222 143/314/216 137/321/223
f 146/322/224 144/319/221 136/323/225
f 286/324/226 288/325/227 135/320/222
f 136/323/225 289/326/228 138/327/229
f 280/259/188 278/268/193 141/316/218
f 142/317/219 279/271/196 281/264/191
f 288/325/227 272/328/230 143/314/216
f 144/319/221 273/329/231 289/326/228
f 272/328/230 280/259/188 143/314/216
f 140/318/220 281/264/191 144/319/221
f 278/268/193 270/330/232 145/331/233
f 146/322/224 271/332/234 279/271/196
f 270/330/232 286/324/226 137/321/223
f 138/327/229 287/333/235 146/322/224
f 284/278/200 280/259/188 272/328/230
f 273/329/231 281/264/191 275/334/236
f 292/335/237 274/336/238 272/328/230
f 273/329/231 275/334/236 293/337/239
f 149/145/109 288/325/227 147/146/110
f 287/333/235 289/326/228 148/149/111
f 147/146/110 286/324/226 153/151/112
f 291/338/240 287/333/235 154/154/113
f 151/155/114 292/335/237 288/325/227
f 289/326/228 293/337/239 152/157/116
f 153/151/112 290/339/241 151/158/114
f 293/340/239 291/338/240 152/161/116
f 264/254/185 157/226/170 262/255/182
f 156/216/158 158/227/171 263/256/183
f 268/273/198 159/237/178 157/341/170
f 158/342/171 160/240/179 265/275/186
f 266/282/181 161/206/155 268/283/198
f 160/248/179 162/209/161 267/285/192
f 169/343/175 167/344/180 165/345/166
f 164/346/167 168/347/173 166/348/168
f 175/349/242 173/350/243 171/351/244
f 172/352/245 174/353/246 176/354/247
f 199/355/248 201/356/249 173/357/243
f 172/358/245 202/359/250 174/360/246
f 185/361/251 199/362/248 175/363/242
f 174/364/246 200/365/252 186/366/253
f 201/367/249 183/368/254 171/369/244
f 178/370/255 184/371/256 172/372/245
f 183/373/254 185/374/251 175/349/242
f 176/354/247 186/375/253 178/376/255
f 183/368/254 201/367/249 195/377/257
f 196/378/258 202/379/250 184/371/256
f 191/380/259 183/368/254 179/381/260
f 180/382/261 184/371/256 192/383/262
f 179/384/260 195/385/257 181/386/263
f 198/387/264 196/388/258 182/389/265
f 187/390/266 179/384/260 189/391/267
f 182/389/265 180/392/261 190/393/268
f 181/394/263 197/395/269 185/361/251
f 200/365/252 198/396/264 186/366/253
f 189/397/267 181/394/263 193/398/270
f 186/366/253 182/399/265 194/400/271
f 193/401/270 185/374/251 191/402/259
f 184/403/256 186/375/253 192/402/262
f 201/356/249 199/355/248 197/404/269
f 198/405/264 200/406/252 202/359/250
f 229/407/272 191/380/259 223/408/273
f 188/409/274 192/383/262 224/410/275
f 223/411/273 187/390/266 225/412/276
f 190/393/268 188/413/274 226/414/277
f 225/415/276 189/397/267 193/398/270
f 194/400/271 190/416/268 226/417/277
f 227/418/278 193/401/270 191/402/259
f 192/402/262 194/419/271 228/420/279
f 211/421/280 209/422/281 213/423/282
f 208/424/283 210/425/284 214/426/285
f 205/427/286 211/421/280 203/428/287
f 214/426/285 212/429/288 204/430/289
f 245/431/290 243/432/291 203/428/287
f 206/433/292 244/434/293 204/430/289
f 227/435/278 229/436/272 207/437/294
f 208/424/283 230/438/295 228/439/279
f 221/440/296 227/435/278 209/422/281
f 210/425/284 228/439/279 222/441/297
f 243/432/291 221/440/296 205/427/286
f 212/429/288 222/441/297 206/433/292
f 229/436/272 219/442/298 213/423/282
f 214/426/285 220/443/299 230/438/295
f 219/442/298 245/431/290 203/428/287
f 204/430/289 246/444/300 220/443/299
f 219/445/298 229/446/272 223/447/273
f 224/448/275 230/449/295 220/450/299
f 245/451/290 219/445/298 215/452/301
f 216/453/302 220/450/299 246/454/300
f 215/455/301 223/456/273 217/457/303
f 226/458/277 224/459/275 218/460/304
f 239/461/305 215/455/301 241/462/306
f 218/460/304 216/463/302 242/464/307
f 217/465/303 225/466/276 221/467/296
f 228/468/279 226/469/277 222/470/297
f 241/471/306 217/465/303 221/467/296
f 222/470/297 218/472/304 244/473/293
f 235/474/308 245/451/290 231/293/206
f 240/475/309 246/454/300 232/296/209
f 231/476/206 239/461/305 241/462/306
f 242/464/307 240/477/309 232/478/209
f 248/479/204 231/476/206 233/480/310
f 234/481/311 232/478/209 249/482/210
f 233/483/310 241/471/306 237/484/213
f 244/473/293 242/485/307 238/486/214
f 251/487/312 233/483/310 254/488/211
f 238/486/214 234/489/311 255/490/212
f 237/307/213 243/432/291 235/491/308
f 246/444/300 244/434/293 236/309/207
f 248/479/204 251/492/312 247/493/313
f 250/494/314 252/495/315 249/482/210
f 256/496/130 248/479/204 258/497/131
f 247/493/313 249/482/210 258/497/131
f 254/488/211 253/498/215 250/499/314
f 250/499/314 253/498/215 255/490/212
f 270/330/232 278/268/193 282/287/202
f 283/500/316 279/271/196 271/332/234
f 286/324/226 270/330/232 290/339/241
f 277/501/317 271/332/234 291/338/240
f 276/502/318 282/287/202 274/503/238
f 285/290/203 283/500/316 275/504/236
f 290/339/241 276/502/318 274/503/238
f 275/504/236 277/501/317 293/340/239
f 298/192/145 296/505/319 294/506/320
f 295/507/321 297/193/146 299/194/148
f 311/168/123 309/508/322 318/172/127
f 317/509/323 310/510/324 318/172/127
f 315/163/119 320/162/118 319/511/325
f 319/512/325 320/167/118 316/166/122
f 309/508/322 311/168/123 321/141/105
f 324/136/100 312/171/126 322/142/106
f 325/140/104 327/131/95 313/513/326
f 316/166/122 328/514/327 314/515/328
f 327/131/95 323/133/97 311/168/123
f 312/171/126 324/136/100 328/514/327
f 313/513/326 309/508/322 325/140/104
f 322/142/106 310/510/324 326/143/107
f 344/516/329 338/517/330 330/518/331
f 331/519/332 339/520/333 345/521/334
f 329/522/335 332/523/336 333/524/337
f 334/525/338 332/526/336 329/527/335
f 344/516/329 333/524/337 335/528/339
f 336/529/340 334/525/338 345/521/334
f 335/528/339 333/524/337 337/530/341
f 332/526/336 334/525/338 337/531/341
f 341/532/342 335/528/339 343/533/343
f 337/531/341 336/529/340 343/534/343
f 346/535/344 340/536/345 338/517/330
f 339/520/333 340/536/345 346/535/344
f 344/516/329 341/532/342 346/535/344
f 343/537/343 342/538/346 346/535/344
f 309/539/322 313/540/326 338/517/330
f 331/519/332 314/541/328 339/520/333
f 313/540/326 319/542/325 330/518/331
f 329/527/335 319/543/325 331/519/332
f 309/539/322 338/517/330 340/536/345
f 340/536/345 339/520/333 310/544/324
f 347/545/347 355/546/348 350/547/349
f 355/548/348 347/549/347 348/550/350
f 355/551/348 348/552/350 349/553/351
f 355/554/348 349/555/351 350/556/349
f 351/557/352 354/558/353 352/559/354
f 347/549/347 351/560/352 348/550/350
f 348/552/350 352/561/354 349/553/351
f 349/555/351 353/562/355 350/556/349
f 351/563/352 347/545/347 354/564/353
f 6/6/6 5/1/1 7/3/3
f 5/1/1 6/6/6 2/5/5
f 3/7/7 2/5/5 7/3/3
f 4/11/8 3/7/7 8/2/2
f 1/9/4 4/13/8 8/10/2
f 10/565/356 3/7/7 9/12/9
f 1/9/4 12/566/10 9/14/9
f 2/5/5 11/16/11 12/15/10
f 3/7/7 10/565/356 11/16/11
f 11/16/11 10/565/356 9/12/9
f 17/43/27 15/17/12 19/19/14
f 14/21/16 16/567/20 18/22/17
f 15/24/12 25/568/25 27/25/18
f 16/27/20 14/569/16 28/28/21
f 13/30/13 27/52/18 21/31/22
f 14/33/16 20/570/15 22/34/23
f 17/571/27 23/35/24 15/37/12
f 18/572/17 16/38/20 24/40/26
f 19/19/14 21/41/22 17/43/27
f 24/44/26 22/573/23 20/20/15
f 27/25/18 25/568/25 29/46/29
f 28/28/21 32/574/31 30/47/30
f 26/39/19 30/575/30 29/48/29
f 31/576/28 29/49/29 32/51/31
f 31/53/28 32/577/31 28/32/21
f 27/52/18 28/32/21 22/34/23
f 24/40/26 26/39/19 25/36/25
f 23/35/24 34/61/34 33/54/32
f 36/63/36 21/31/22 35/55/33
f 24/57/26 33/65/32 35/58/33
f 21/56/22 36/67/36 34/60/34
f 37/69/39 33/54/32 38/62/35
f 35/55/33 39/71/38 40/64/37
f 33/65/32 37/578/39 39/66/38
f 36/67/36 40/75/37 38/68/35
f 41/74/40 38/68/35 40/75/37
f 39/66/38 37/578/39 41/77/40
f 67/79/43 52/89/53 46/80/44
f 68/82/46 44/579/357 47/83/47
f 54/85/49 51/87/51 45/86/50
f 55/88/52 49/90/54 45/86/50
f 52/89/53 54/85/49 48/84/48
f 53/81/45 47/83/47 49/90/54
f 62/102/66 57/91/55 67/79/43
f 63/103/67 68/82/46 58/92/56
f 66/94/58 69/104/68 67/79/43
f 66/94/58 50/93/57 68/82/46
f 51/87/51 54/85/49 56/97/61
f 51/87/51 56/97/61 55/88/52
f 54/85/49 52/89/53 59/96/60
f 55/88/52 60/98/62 53/81/45
f 56/97/61 59/96/60 61/100/64
f 56/97/61 61/100/64 60/98/62
f 62/102/66 64/99/63 59/96/60
f 63/103/67 58/92/56 60/98/62
f 61/100/64 64/99/63 66/94/58
f 61/100/64 66/94/58 65/101/65
f 67/79/43 69/104/68 64/99/63
f 68/82/46 63/103/67 65/101/65
f 71/106/70 72/108/72 75/107/71
f 71/106/70 74/580/358 76/109/73
f 73/105/69 75/107/71 77/111/75
f 74/580/358 78/112/76 76/109/73
f 87/120/84 81/114/78 89/116/80
f 88/123/87 90/117/81 82/119/83
f 87/120/84 91/122/86 83/121/85
f 88/123/87 82/119/83 83/121/85
f 84/115/79 92/581/359 94/125/89
f 85/118/82 86/124/88 94/125/89
f 89/116/80 84/115/79 95/127/91
f 90/117/81 95/127/91 85/118/82
f 83/121/85 98/129/93 96/128/92
f 83/121/85 82/119/83 97/130/94
f 101/132/96 99/137/101 323/133/97
f 102/135/99 328/514/327 324/136/100
f 321/141/105 323/133/97 105/138/102
f 322/142/106 106/139/103 324/136/100
f 103/582/117 325/140/104 105/138/102
f 104/144/108 106/139/103 326/143/107
f 325/140/104 103/582/117 101/132/96
f 326/143/107 328/514/327 102/135/99
f 147/146/110 99/583/101 101/147/96
f 148/149/111 150/156/115 102/150/99
f 99/583/101 147/146/110 105/152/102
f 100/148/98 106/153/103 148/149/111
f 103/584/117 151/155/114 101/147/96
f 104/585/108 102/150/99 152/157/116
f 105/152/102 153/151/112 103/159/117
f 106/153/103 104/160/108 154/154/113
f 315/163/119 302/189/129 300/164/120
f 300/190/120 303/165/121 320/167/118
f 302/189/129 315/163/119 304/169/124
f 303/165/121 305/170/125 316/166/122
f 311/168/123 318/172/127 304/169/124
f 312/171/126 305/170/125 318/172/127
f 300/586/360 302/174/129 258/176/131
f 300/587/360 258/177/131 303/179/121
f 259/181/133 256/175/130 302/174/129
f 260/182/134 305/185/125 303/179/121
f 133/183/135 304/180/124 261/187/138
f 134/184/136 261/187/138 305/185/125
f 306/588/361 308/188/139 302/189/141
f 307/589/362 303/165/142 308/191/139
f 301/173/144 296/505/319 298/192/145
f 301/173/147 305/170/363 299/194/148
f 113/196/150 111/590/160 107/197/151
f 114/199/153 110/203/157 108/200/154
f 107/197/151 161/201/155 109/195/149
f 156/204/158 162/252/161 108/200/154
f 161/206/155 107/591/151 111/207/160
f 162/209/161 122/247/164 112/210/152
f 109/592/149 155/211/156 113/213/150
f 110/593/157 114/214/153 156/216/158
f 121/218/159 111/590/160 113/196/150
f 114/199/153 112/198/152 116/220/163
f 165/222/166 163/594/172 115/212/162
f 116/215/163 164/223/167 118/225/169
f 155/211/156 157/226/170 115/212/162
f 156/216/158 116/215/163 158/227/171
f 163/228/172 167/595/180 121/218/159
f 164/230/167 116/220/163 122/219/164
f 117/238/165 119/231/174 165/233/166
f 118/239/169 166/234/168 120/236/177
f 157/341/170 159/237/178 117/238/165
f 158/342/171 118/239/169 160/240/179
f 119/596/174 121/205/159 169/242/175
f 168/244/173 122/247/164 120/245/177
f 121/205/159 119/596/174 159/246/178
f 122/247/164 162/209/161 160/248/179
f 262/250/182 155/202/156 161/201/155
f 263/251/183 267/266/192 162/252/161
f 123/597/189 125/253/184 262/255/182
f 124/598/190 263/256/183 126/258/187
f 278/268/193 280/259/188 123/261/189
f 279/271/196 124/262/190 281/264/191
f 129/599/194 123/265/189 266/249/181
f 130/600/195 267/266/192 124/267/190
f 282/287/202 278/268/193 129/269/194
f 283/500/316 130/270/195 279/271/196
f 268/273/198 264/601/185 125/274/184
f 269/276/199 128/602/201 126/277/187
f 127/279/197 125/260/184 280/259/188
f 128/280/201 285/603/203 281/264/191
f 127/604/197 129/281/194 268/283/198
f 128/605/201 269/284/199 130/286/195
f 129/269/194 127/606/197 284/288/200
f 130/270/195 283/500/316 285/290/203
f 131/292/205 235/474/308 231/293/206
f 132/295/208 249/299/210 232/296/209
f 131/292/205 248/291/204 256/298/130
f 132/295/208 260/607/134 257/300/132
f 131/308/205 259/301/133 254/303/211
f 132/311/208 255/304/212 260/306/134
f 237/307/213 235/491/308 131/308/205
f 238/310/214 255/304/212 132/311/208
f 133/302/135 261/312/138 254/303/211
f 253/313/215 261/312/138 134/305/136
f 145/331/233 143/314/216 141/316/218
f 146/322/224 142/317/219 144/319/221
f 143/314/216 145/331/233 137/321/223
f 138/327/229 146/322/224 136/323/225
f 137/321/223 286/324/226 135/320/222
f 289/326/228 287/333/235 138/327/229
f 139/315/217 280/259/188 141/316/218
f 140/318/220 142/317/219 281/264/191
f 135/320/222 288/325/227 143/314/216
f 136/323/225 144/319/221 289/326/228
f 280/259/188 139/315/217 143/314/216
f 281/264/191 273/329/231 144/319/221
f 141/316/218 278/268/193 145/331/233
f 142/317/219 146/322/224 279/271/196
f 145/331/233 270/330/232 137/321/223
f 287/333/235 271/332/234 146/322/224
f 274/336/238 284/278/200 272/328/230
f 281/264/191 285/603/203 275/334/236
f 288/325/227 292/335/237 272/328/230
f 289/326/228 273/329/231 293/337/239
f 288/325/227 286/324/226 147/146/110
f 289/326/228 150/156/115 148/149/111
f 286/324/226 290/339/241 153/151/112
f 287/333/235 148/149/111 154/154/113
f 149/145/109 151/155/114 288/325/227
f 150/156/115 289/326/228 152/157/116
f 290/339/241 292/608/237 151/158/114
f 291/338/240 154/154/113 152/161/116
f 157/226/170 155/211/156 262/255/182
f 158/227/171 265/257/186 263/256/183
f 264/601/185 268/273/198 157/341/170
f 160/240/179 269/276/199 265/275/186
f 161/206/155 159/246/178 268/283/198
f 269/284/199 160/248/179 267/285/192
f 167/344/180 163/609/172 165/345/166
f 168/347/173 170/610/176 166/348/168
f 177/611/364 175/349/242 171/351/244
f 178/376/255 172/352/245 176/354/247
f 201/356/249 171/612/244 173/357/243
f 202/359/250 200/406/252 174/360/246
f 199/362/248 173/613/243 175/363/242
f 176/614/247 174/364/246 186/366/253
f 183/368/254 177/615/364 171/369/244
f 184/371/256 202/379/250 172/372/245
f 177/611/364 183/373/254 175/349/242
f 186/375/253 184/403/256 178/376/255
f 179/381/260 183/368/254 195/377/257
f 180/382/261 196/378/258 184/371/256
f 187/616/266 191/380/259 179/381/260
f 188/409/274 180/382/261 192/383/262
f 195/385/257 197/617/269 181/386/263
f 196/388/258 180/392/261 182/389/265
f 179/384/260 181/386/263 189/391/267
f 180/392/261 188/413/274 190/393/268
f 197/395/269 199/362/248 185/361/251
f 198/396/264 182/399/265 186/366/253
f 181/394/263 185/361/251 193/398/270
f 182/399/265 190/416/268 194/400/271
f 185/374/251 183/373/254 191/402/259
f 186/375/253 194/419/271 192/402/262
f 195/618/257 201/356/249 197/404/269
f 196/619/258 198/405/264 202/359/250
f 191/380/259 187/616/266 223/408/273
f 192/383/262 230/620/295 224/410/275
f 187/390/266 189/391/267 225/412/276
f 188/413/274 224/621/275 226/414/277
f 227/622/278 225/415/276 193/398/270
f 228/623/279 194/400/271 226/417/277
f 229/624/272 227/418/278 191/402/259
f 230/625/295 192/402/262 228/420/279
f 209/422/281 207/437/294 213/423/282
f 210/425/284 212/429/288 214/426/285
f 211/421/280 213/423/282 203/428/287
f 212/429/288 206/433/292 204/430/289
f 243/432/291 205/427/286 203/428/287
f 244/434/293 246/444/300 204/430/289
f 209/422/281 227/435/278 207/437/294
f 210/425/284 208/424/283 228/439/279
f 211/421/280 221/440/296 209/422/281
f 212/429/288 210/425/284 222/441/297
f 221/440/296 211/421/280 205/427/286
f 222/441/297 244/434/293 206/433/292
f 207/437/294 229/436/272 213/423/282
f 208/424/283 214/426/285 230/438/295
f 213/423/282 219/442/298 203/428/287
f 214/426/285 204/430/289 220/443/299
f 215/452/301 219/445/298 223/447/273
f 216/453/302 224/448/275 220/450/299
f 239/626/305 245/451/290 215/452/301
f 240/475/309 216/453/302 246/454/300
f 223/456/273 225/627/276 217/457/303
f 224/459/275 216/463/302 218/460/304
f 215/455/301 217/457/303 241/462/306
f 216/463/302 240/477/309 242/464/307
f 225/466/276 227/628/278 221/467/296
f 226/469/277 218/472/304 222/470/297
f 243/629/291 241/471/306 221/467/296
f 218/472/304 242/485/307 244/473/293
f 245/451/290 239/626/305 231/293/206
f 246/454/300 236/294/207 232/296/209
f 233/480/310 231/476/206 241/462/306
f 234/481/311 242/464/307 232/478/209
f 251/492/312 248/479/204 233/480/310
f 252/495/315 234/481/311 249/482/210
f 241/471/306 243/629/291 237/484/213
f 242/485/307 234/489/311 238/486/214
f 233/483/310 237/484/213 254/488/211
f 234/489/311 252/630/315 255/490/212
f 243/432/291 245/431/290 235/491/308
f 244/434/293 238/310/214 236/309/207
f 251/492/312 250/494/314 247/493/313
f 247/493/313 250/494/314 249/482/210
f 248/479/204 247/493/313 258/497/131
f 249/482/210 257/631/132 258/497/131
f 251/487/312 254/488/211 250/499/314
f 252/630/315 250/499/314 255/490/212
f 276/502/318 270/330/232 282/287/202
f 277/501/317 283/500/316 271/332/234
f 270/330/232 276/502/318 290/339/241
f 271/332/234 287/333/235 291/338/240
f 282/287/202 284/288/200 274/503/238
f 283/500/316 277/501/317 275/504/236
f 292/608/237 290/339/241 274/503/238
f 277/501/317 291/338/240 293/340/239
f 309/508/322 317/509/323 318/172/127
f 310/510/324 312/171/126 318/172/127
f 313/513/326 315/163/119 319/511/325
f 314/515/328 319/512/325 316/166/122
f 311/168/123 323/133/97 321/141/105
f 312/171/126 310/510/324 322/142/106
f 327/131/95 315/163/119 313/513/326
f 328/514/327 326/143/107 314/515/328
f 315/163/119 327/131/95 311/168/123
f 316/166/122 312/171/126 328/514/327
f 309/508/322 321/141/105 325/140/104
f 310/510/324 314/515/328 326/143/107
f 333/524/337 344/516/329 330/518/331
f 334/525/338 331/519/332 345/521/334
f 330/518/331 329/522/335 333/524/337
f 331/519/332 334/525/338 329/527/335
f 341/532/342 344/516/329 335/528/339
f 342/538/346 336/529/340 345/521/334
f 333/524/337 332/523/336 337/530/341
f 334/525/338 336/529/340 337/531/341
f 335/528/339 337/530/341 343/533/343
f 336/529/340 342/538/346 343/534/343
f 344/516/329 346/535/344 338/517/330
f 345/521/334 339/520/333 346/535/344
f 341/532/342 343/537/343 346/535/344
f 342/538/346 345/521/334 346/535/344
f 313/540/326 330/518/331 338/517/330
f 314/541/328 310/544/324 339/520/333
f 319/542/325 329/522/335 330/518/331
f 319/543/325 314/541/328 331/519/332
f 317/632/323 309/539/322 340/536/345
f 317/632/323 340/536/345 310/544/324
f 354/558/353 353/633/355 352/559/354
f 351/560/352 352/634/354 348/550/350
f 352/561/354 353/635/355 349/553/351
f 353/562/355 354/636/353 350/556/349
f 347/545/347 350/547/349 354/564/353
